   Helicopter EC130-B4
   -------------------

   Registration: ZS-HOY
   C/N:   4980 (2010)
   Operator: Starlite Helicopters
   Location: Durban, South Africa


   WEB-Link: -

   Personal Notes of the Livery Editor (mhab):
   ------------------------------------------
   ZS-HOY is hardly found in the WEB. It is very similar to F-GOLH and very beautiful.
   Due to the similarity with F-GOLH it was limited effort to do it, but some differences
   exist.

   One special characteristic of this variant are the enlarged luggage boxes.


   last update: 2014-03-02
